yarn global add serve
serve -s build

Using
npm i http-server -D
"scripts": {
        "start": "react-scripts start",
        "build": "react-scripts build",
        "test": "react-scripts test",
        "eject": "react-scripts eject",
        "start-sw": "http-server ./build"
    },
npm run build && npm run start-sw